<?xml version="1.0" encoding="utf-8"?>
<!-- Generator: Adobe Illustrator 19.0.0, SVG Export Plug-In . SVG Version: 6.00 Build 0)  -->
<svg version="1.1"
	 id="Layer_1" xmlns:dc="http://purl.org/dc/elements/1.1/" xmlns:cc="http://creativecommons.org/ns#" xmlns:rdf="http://www.w3.org/1999/02/22-rdf-syntax-ns#" xmlns:svg="http://www.w3.org/2000/svg" xmlns:sodipodi="http://sodipodi.sourceforge.net/DTD/sodipodi-0.dtd" xmlns:inkscape="http://www.inkscape.org/namespaces/inkscape"
	 xmlns="http://www.w3.org/2000/svg" xmlns:xlink="http://www.w3.org/1999/xlink" x="0px" y="0px" viewBox="-565 388 100 100"
	 style="enable-background:new -565 388 100 100;" xml:space="preserve">
<g transform="translate(0,-952.36218)">
	<path d="M-513,1348.4c-2.5,0-4.8,1.1-6.2,2.9l14.1,3.7C-505.8,1351.2-509.1,1348.4-513,1348.4z M-526.8,1350.4l-0.5,1.9l27,7
		l0.5-1.9L-526.8,1350.4z M-520.9,1355c-0.1,0.4-0.1,0.9-0.1,1.3c0,4.4,3.6,8,8,8c3.5,0,6.4-2.2,7.5-5.3L-520.9,1355z M-526,1361.4
		l-17,8l-3.6,12.5l-12.1-2.5l-0.4,2l12,2.5c0,0.8,0.2,1.5,1,1.5c0.9,0,1.8,0,2.8-0.8l10.3,2.1l-1,3.7v20l-6,18c0,2,2,4,4,4s4,0,5-2
		l6-18c0-5,0-11,1-16c4,6,6,13,8,19v15c1,2,3,2,5,2s4-1,5-3v-17l-7-19l0.6-2.5l14.9,3l0.6,0.4c0.6,0.3,1.2,0.3,1.8,0.1l21,4.3
		c-0.2,5-4,12.6-4,14.6c2.8-1.9,4.8-8.3,6.7-14.1c0.3-0.3,0.4-1.4,0.5-1.9l-23.2-4.8c0-0.7-0.1-1.5-0.8-2.2l-10-8l-1-14l-4.2-1.5
		l-2,3c-0.2,0.4-0.7,0.5-1.1,0.4l-10-3c-0.4-0.1-0.7-0.5-0.7-0.9v-4.3L-526,1361.4z M-522,1362.8v2.8l8.6,2.6l1.3-2L-522,1362.8z
		 M-528,1368.4l-4.5,16.4l-9.9-2l3.4-9.3L-528,1368.4z M-510,1380.4l1,5l7.7,5.8l-10.7-2.2L-510,1380.4z"/>
</g>
</svg>
